@relation crime_incident_report_output

@attribute DAYOFYR numeric
@attribute HROFDAY numeric
@attribute TEMP numeric
@attribute CRIMETYPE {stolen_property,vandalism,breaking,auto_theft,assault,murder,disorderly_people,robbery}
@attribute ZONE {Allston,Dorchester,BackBay,BeaconHillBayVillageChinatown,Charlestown,SouthBoston,Downtown,EastBoston,Fenway,JamaicaPlain,Mattapan,MissionHillLMA,NorthEndWestEnd,Brighton,SouthEnd,Roslindale,Roxbury,SouthZone,WestRoxbury}
@attribute STREET {western_av,cambridge_st,lincoln_st,stadium_wy,bronsdon_st,empire_st,riverdale_st,franklin_st,easton_st,mansfield_st,hooker_st,aldie_st,litchfield_st,holton_st,royal_st,soldiers_field_rd,bagnal_st,harvard_st,talbot_av,mather_st,centre_st,st_marks_rd,samoset_st,lithgow_st,shepton_st,adams_st,king_st,dix_st,dorchester_av,denvir_st,lafield_st,melbourne_st,whitten_st,dayton_st,edwin_st,lonsdale_st,welles_av,centre_av,washington_st,wrentham_st,monsignor_patrick_j_lydon_way,nixon_st,waldeck_st,melville_av,brent_st,odonnell_ter,clementine_park,allston_st,boylston_st,commonwealth_av,scotia_st,newbury_st,marlborough_st,huntington_av,fairfield_st,massachusetts_av,arlington_st,copley_place,dartmouth_st,st_germain_st,hereford_st,clarendon_st,dalton_st,cumberland_st,berkeley_st,st_james_st,beacon_st,exeter_st,belvidere_st,st_botolph_st,w_newton_st,stanhope_st,stuart_st,bowdoin_st,boylston_pl,charles_st,beach_st,tremont_st,essex_st,warrenton_st,park_st,hudson_st,piedmont_st,beaver_st,phillips_st,temple_pl,brimmer_st,south_st,park_plaza,pemberton_sq,river_st,kneeland_st,oak_st,lagrange_st,maple_pl,hadassah_wy,otis_pl,staniford_st,fayette_st,marginal_rd,oxford_st,nassau_st,tufts_st,atlantic_av,joy_st,church_st,harrison_av,cedar_lane_wy,olney_st,norton_st,columbia_rd,bullard_st,geneva_av,eunice_st,rosseter_st,columbia_st,puritan_av,davidson_av,nottingham_st,brinsley_st,coleman_st,ronald_st,mt_bowdoin_ter,morse_st,inwood_st,minot_st,grayson_st,gallivan_bl,rockne_av,chickatawbut_st,ashmont_st,rita_rd,alford_st,medford_st,dunstable_st,oreilly_wy,concord_st,decatur_st,w_school_st,terminal_st,parker_st,vine_st,omeara_ct,constitution_rd,warren_st,salem_st,russell_st,main_st,sullivan_sq,roland_st,old_landing_wy,walford_wy,bunker_hill_st,high_st,corey_st,charles_river_av,armory_st,austin_st,carney_ct,green_st,rutherford_av,brighton_st,1st_av,tibbetts_town_wy,mystic_st,chelsea_st,chestnut_st,lexington_st,belmont_st,prospect_st,8th_st,westville_st,lyndhurst_st,tremlett_st,larchmont_st,lindsey_st,moultrie_st,dakota_st,greenbrier_st,boyd_st,bloomfield_st,claybourne_st,iowa_st,gaylord_st,tonawanda_st,island_view_pl,mt_vernon_st,grafton_st,st_william_st,beach_point_pl,freeport_st,sydney_st,playstead_rd,savin_hill_av,south_point_dr,harbor_point_bl,ocean_view_dr,grant_st,sagamore_st,westwind_rd,carson_st,morrissey_bl,harbor_view_st,mayfield_st,sudan_st,bay_st,hallam_st,peninsula_pl,belfort_st,newport_st,dorchester_st,e_4th_st,k_st,seaport_bl,w_9th_st,old_colony_av,congress_st,farragut_rd,summer_st,melcher_st,e_7th_st,dry_dock_av,e_broadway,necco_pl,e_2nd_st,i_st,northern_av,e_5th_st,l_st,h_st,e_3rd_st,3rd_st,e_6th_st,p_st,lennon_ct,elkins_st,e_8th_st,old_harbor_st,mercer_st,w_4th_st,carmody_ct,d_st,a_st,g_st,burke_st,patterson_wy,e_1st_st,thomas_park,w_broadway,state_st,central_wf,washington_st_pl,avenue_de_lafayette,otis_st,winthrop_sq,broad_st,faneuil_hall_sq,milk_st,water_st,kingston_st,chatham_st,school_st,s_market_st,merchants_rw,north_st,union_st,city_hall_pz,winter_st,avery_st,arch_st,west_st,batterymarch_st,bedford_st,bromfield_st,international_pl,summer_av,india_st,province_st,chauncy_st,bosworth_st,kilby_st,putnam_st,havre_st,marion_st,brooks_st,princeton_st,bennington_st,border_st,condor_st,glendon_st,gove_st,meridian_st,e_eagle_st,paris_st,bremen_st,saratoga_st,liverpool_st,bremen_pl,saratoga_pl,falcon_st,marion_pl,white_st,eutaw_st,emmons_st,morris_st,central_sq,w_teremlett_st,bradshaw_st,blue_hill_av,esmond_st,elwyn_rd,norwell_st,glenway_st,wolcott_st,nightingale_st,merlin_st,vesta_rd,wheatland_av,millet_st,greenwood_st,powellton_rd,thane_st,athelwold_st,aspinwall_rd,ripley_rd,fowler_st,rosedale_st,whitfield_st,erie_st,gleason_st,wales_st,harvard_av,kingsdale_st,elmont_st,michigan_av,bernard_st,seaver_st,westcott_st,harvard_park,algonquin_st,spencer_st,queensberry_st,ipswich_st,leon_st,van_ness_st,park_dr,edgerly_rd,symphony_rd,arundel_st,jersey_st,st_stephen_st,peterborough_st,bay_state_rd,hemenway_st,brookline_av,kilmarnock_st,gainsborough_st,lansdowne_st,westland_av,fenway,forsyth_st,yawkey_wy,forsyth_wy,deerfield_st,greenwich_st,parkman_st,orchardfield_st,clayton_st,faulkner_st,centervale_park,upland_av,fenton_st,leonard_st,victory_rd,lyon_st,arcadia_park,arcadia_st,bispham_st,gibson_st,freeman_st,norfolk_st,stockton_st,edson_st,codman_hill_av,wilmington_av,fairmount_st,havelock_st,withington_st,arbutus_st,capen_st,westview_st,peacevale_rd,donald_rd,mora_st,morton_st,shandon_rd,ferndale_st,jacob_st,mascot_st,elmhurst_st,stratton_st,dunbar_av,theodore_st,new_england_av,brookview_st,maxwell_st,westview_wy,evans_st,ballou_av,woodrow_av,middleton_st,callender_st,nelson_st,wilbert_cr,wildwood_st,lucerne_st,fuller_st,floyd_st,wilcock_st,livingstone_st,willowwood_st,marden_av,american_legion_hy,johnson_ter,whitman_st,wilbert_rd,normandy_st,forest_hills_st,brookledge_st,gaston_st,maple_st,cheney_st,homestead_st,humboldt_av,magnolia_st,holborn_st,intervale_st,howland_st,weldon_st,lawrence_av,creston_st,fayston_st,crawford_st,wyoming_st,waumbeck_st,georgia_st,nazing_st,elm_hill_park,sonoma_st,oldfields_rd,ruthven_st,brunswick_st,pasadena_rd,wenonah_st,fernboro_st,supple_rd,stanwood_st,devon_st,wabon_st,elm_hill_av,deckard_st,hutchings_st,centre_ter,s_huntington_av,moraine_st,bickford_st,heath_st,lamartine_st,parkwood_ter,paul_gore_st,sheridan_st,wyman_st,day_st,forbes_st,cranston_st,creighton_st,round_hill_st,bardwell_st,union_av,mcbride_st,rosemary_st,st_rose_st,amory_st,pond_st,pershing_rd,jamaicaway_ct,arborway,orchard_st,elm_st,brewer_st,st_joseph_st,ballard_st,lourdes_av,eliot_st,perkins_st,howe_st,parish_st,sawyer_av,e_cottage_st,everett_av,annabel_st,annapolis_st,stoughton_st,pleasant_st,winter_pl,hancock_st,rill_st,sumner_st,edison,taft_st,bakersfield_st,downer_av,homes_av,draper_rd,draper_st,oakley_st,mt_ida_rd,holiday_st,speedwell_st,topliff_st,van_winkle_st,rowena_st,burt_st,bailey_st,croftland_av,st_gregory_st,bearse_av,delhi_st,cummins_hy,hosmer_st,rexford_st,hiawatha_rd,cedar_st,outlook_rd,walk_hill_st,halborn_st,ridgeview_av,deering_rd,goodale_rd,tennis_rd,woodbole_av,astoria_st,leston_st,w_selden_st,corman_rd,southmere_rd,woodruff_wy,fottler_rd,woolson_st,kennebec_st,woodgate_st,estella_st,fessenden_st,alabama_st,almont_st,mulvey_st,babson_st,mildred_av,cottage_st,east_boston_sq,everett_st,s_bremen_st,east_boston_st,orleans_st,marginal_st,frankfort_st,st_alphonsus_st,francis_st,cherokee_st,longwood_av,sunset_st,riverway,hillside_st,fisher_av,cabot_st,eldora_st,terrace_st,fenwood_rd,pontiac_st,calumet_st,vancouver_st,hillside_av,s_whitney_st,bucknam_st,smith_st,harleston_st,shawmut_av,delle_av,pilgrim_rd,short_st,parker_hill_av,horadan_wy,ruggles_st,wensley_st,schroeder_plaza,annunciation_rd,carmel_st,cornelia_st,madison_park_ct,mindoro_st,vining_st,burney_st,raynor_cr,whittier_st,gurney_st,darling_st,mission_park_dr,williams_st,sachem_st,ellingwood_st,bowman_st,coffey_st,neponset_av,houghton_st,elmdale_st,rosemont_st,spaulding_st,boutwell_st,rosselerin_rd,agawam_st,daly_st,camelot_ct,market_st,dustin_st,brighton_av,st_lukes_rd,scottfield_rd,alcorn_st,denby_rd,quint_av,gardner_st,malvern_st,brainerd_rd,gordon_st,ashford_st,sawyer_ter,corey_rd,glenville_av,guest_st,penniman_rd,linden_st,wirt_st,henshaw_st,n_beacon_st,greylock_rd,braintree_st,chester_st,commonwealth_ct,highgate_st,long_av,fidelis_wy,etna_st,kelton_st,royce_rd,wadsworth_st,president_ter,hano_st,ridgemont_st,griggs_st,gardner_ter,summit_av,fordham_rd,imrie_rd,park_vale_av,pratt_st,islington_st,murdock_ter,higgins_st,commonwealth_ter,bellvista_rd,blaine_st,causeway_st,legends_way,new_chardon_st,canal_st,fruit_st,portland_st,hanover_st,n_bennet_st,thacher_st,friend_st,hawkins_st,bulfinch_pl,court_st,prince_st,commercial_st,n_washington_st,lomasney_wy,endicott_st,sudbury_st,fleet_st,cleveland_pl,colborne_rd,chiswick_rd,perthshire_rd,chestnut_hill_av,gerald_rd,englewood_av,lake_st,glenmont_rd,cummings_rd,langley_rd,winship_st,faneuil_st,strathmore_rd,fairbanks_st,brock_st,hobson_st,sutherland_rd,ayr_rd,foster_st,oneil_pl,wallingford_rd,claymoss_rd,leamington_rd,parsons_st,leicester_st,monastery_rd,bigelow_st,egremont_rd,nonantum_st,sidlaw_rd,radnor_rd,bennet_st,shannon_st,coleridge_st,st_andrew_rd,montmorenci_av,vallar_rd,leyden_st,neptune_rd,waldemar_av,byron_st,shawsheen_rd,brandywyne_dr,boardman_st,orient_av,gladstone_st,b_st,allstate_rd,southampton_st,ellery_st,damrell_st,middle_st,boston_st,logan_wy,w_3rd_st,bellflower_st,mayhew_st,preble_st,gavin_wy,s_bay_av,c_st,orton_marotta_wy,crowley_rogers_wy,silver_st,broadway,w_6th_st,joyce_hayes_wy,w_1st_st,w_5th_st,buttonwood_st,st_margaret_st,ocallaghan_wy,frontage_rd,beech_st,glendower_rd,fawndale_rd,rowe_st,aldwin_rd,blue_ledge_dr,corinth_st,roslindale_av,birch_st,firth_rd,belgrade_av,florence_st,albano_st,archdale_rd,grandview_st,robert_st,brown_av,allandale_st,ainsworth_st,leniston_st,wellsmere_rd,tafthill_ter,w_roxbury_py,congreve_st,colgate_rd,hemman_st,hilburn_st,walter_st,amherst_st,basile_st,hillock_st,brookway_rd,iona_st,cornell_st,haydn_st,claxton_st,hyde_park_av,lewiston_st,metropolitan_av,greenwood_av,caton_st,clare_av,eastland_rd,harmon_st,poplar_st,blake_st,pleasantview_st,canterbury_st,ridlon_rd,wood_av,woodlawn_st,fairlawn_av,harding_rd,hopewell_rd,tina_av,greenfield_rd,suncrest_rd,bradlee_st,greenwood_cr,thorn_st,ukraine_wy,monponset_st,hollingsworth_st,seminole_st,eldridge_rd,derry_rd,belnel_rd,columbus_av,roseway_st,brookside_av,enfield_st,walnut_park,atherton_st,bragdon_st,abbottsford_st,walnut_av,amory_av,egleston_st,bismarck_st,chestnut_av,dixwell_st,porter_st,peter_parley_rd,woodside_av,wardman_rd,germania_st,dalrymple_st,spring_park_av,roxbury_st,lambert_st,linwood_st,highland_st,thornton_st,malcolm_x_bl,kearsarge_av,highland_park_av,fort_av,thornton_pl,zeigler_st,hawthorne_st,juniper_st,mt_pleasant_av,guild_st,albany_st,greenville_st,dudley_st,forest_st,marcella_st,fairland_st,john_eliot_sq,dorr_st,webber_st,warren_pl,eustis_st,winthrop_st,akron_st,alpine_st,waverly_st,alaska_st,hazelwood_st,regent_st,harold_park,warren_av,copeland_st,harrishof_st,moreland_st,savin_st,clifford_st,edgewood_st,holworthy_st,munroe_st,dimock_st,dunford_st,martin_luther_king_blvd,codman_park,harold_st,hollander_st,elmore_st,walnut_ct,montrose_st,maywood_st,dartmouth_pl,northampton_st,ditmus_ct,w_springfield_st,taylor_st,e_berkeley_st,haven_st,traveler_st,waltham_st,worcester_st,e_springfield_st,trotter_ct,hammond_st,e_concord_st,warwick_st,claremont_st,dwight_st,cunard_st,e_brookline_st,montgomery_st,lawrence_st,e_newton_st,union_park,cazenove_st,lenox_st,st_charles_st,braddock_park,greenwich_park,rutland_st,chandler_st,rutland_sq,concord_sq,appleton_st,w_concord_st,bradford_st,st_george_st,claremont_park,holyoke_st,e_lenox_st,e_canton_st,camden_st,thorndike_st,coventry_st,worcester_sq,malden_st,union_park_st,st_cyprians_pl,cortes_st,wareham_st,hillis_rd,central_av,reservation_rd,dana_av,westinghouse_plaza,truman_py,riley_rd,williams_av,business_st,garfield_av,doncaster_st,needham_rd,lawton_st,deforest_st,fairmount_av,glenwood_av,myopia_rd,brook_av,shirley_st,kemble_st,howard_av,farnham_st,sargent_st,cunningham_st,arion_st,belden_st,humphreys_st,hartford_st,bird_st,rockford_st,brookford_st,leyland_st,langdon_st,eastman_st,dalkeith_st,marshfield_st,howard_st,gayland_st,norfolk_av,north_av,hillsboro_st,clifton_st,dacia_st,monadnock_st,hamlet_st,danube_st,ingleside_st,judson_st,folsom_st,w_cottage_st,wendover_st,george_st,clarence_st,robey_st,harrow_st,magazine_st,julian_st,dewey_st,ceylon_st,dunmore_st,quincy_st,independence_dr,baker_st,charles_park_rd,rockingham_av,bellevue_st,vfw_py,desoto_rd,spring_st,westmoor_rd,cedarcrest_cr,tennyson_st,margaretta_dr,edgemere_rd,alberta_st,franclaire_dr,glenellen_rd,sanborn_av,linnet_st,bellevue_hill_rd,willers_st,maplewood_st,carol_cr,alleyne_st,cowing_st,grove_st,vershire_st,caspar_st,perham_st,georgetowne_dr}

@data
1,0,11,?,Allston,bailey_st